{
  "project_info": {
    "project_number": "740787617455",
    "firebase_url": "https://feedme-f32b6.firebaseio.com",
    "project_id": "feedme-f32b6",
    "storage_bucket": "feedme-f32b6.appspot.com"
  },
  "client": [
    {
      "client_info": {
        "mobilesdk_app_id": "1:740787617455:android:c407e1c5352a3b86015e5a",
        "android_client_info": {
          "package_name": "com.moi"
        }
      },
      "oauth_client": [
        {
          "client_id": "740787617455-at8s76pa7tvirq4v0pvqj9jcvmiru31m.apps.googleusercontent.com",
          "client_type": 3
        }
      ],
      "api_key": [
        {
          "current_key": "AIzaSyB1Omwv1vT8ywRVG3LzdKheuvl-vPlDGrQ"
        }
      ],
      "services": {
        "appinvite_service": {
          "other_platform_oauth_client": [
            {
              "client_id": "740787617455-at8s76pa7tvirq4v0pvqj9jcvmiru31m.apps.googleusercontent.com",
              "client_type": 3
            }
          ]
        }
      }
    }
  ],
  "configuration_version": "1"
}